[npc]
Wade
down
354
30
21
Caterpie,3,Caterpie,2,Weedle,3,Caterpie,3
4
-1
0
false
false
false
[/npc]
[npc]
NULL
down
0
12
13
NULL
0
-1
1
false
false
false
[/npc]
[npc]
NULL
down
0
35
13
NULL
0
-1
2
false
false
false
[/npc]
[warp]
38
13
3
15
-50
-42
0
[/warp]
[hmobject]
CUT_TREE
26
19
[/hmobject]
[hmobject]
CUT_TREE
16
12
[/hmobject]
