[npc]
Underground Visitor
down
381
5
9
NULL
0
-1
0,1
false
false
false
[/npc]
[warp]
7
15
10
30
-5
0
0
[/warp]
[warp]
6
15
10
30
-5
0
0
[/warp]
[warp]
8
15
10
30
-5
0
0
[/warp]
[warp]
9
15
10
30
-5
0
0
[/warp]
[warp]
8
7
3
34
-31
-37
0
[/warp]
