[npc]
NULL
down
0
14
1
NULL
0
-1
0
false
false
false
[/npc]
[npc]
NULL
down
0
6
1
NULL
0
-1
1,2
false
false
false
[/npc]
[npc]
NULL
down
0
4
1
NULL
0
-1
3
false
false
false
[/npc]
[npc]
Radio Tower Visitor
left
369
17
3
NULL
0
-1
4
false
false
false
[/npc]
[npc]
Buena
right
109
15
7
NULL
0
-1
5,6
false
false
false
[/npc]
[npc]
Radio Tower Visitor
left
384
8
7
NULL
0
-1
7
false
false
false
[/npc]
[warp]
16
1
15
2
-31
-41
0
[/warp]
[warp]
2
1
9
10
-49
-31
0
[/warp]
