[npc]
wallace
down
204
16
17
Lunatone,60,Solrock,60,Xatu,60,Claydol,60
4
23
0
false
false
false
[/npc]
[warp]
16
41
31
33
41
15
0
[/warp]
[warp]
17
41
31
33
41
15
0
[/warp]