[npc]
Bikeshop Owner
left
185
8
3
NULL
0
-1
0
false
false
false
[/npc]
[npc]
NULL
down
0
7
3
NULL
0
-1
1
false
false
false
[/npc]
[npc]
NULL
down
0
8
4
NULL
0
-1
1
false
false
false
[/npc]
[warp]
4
8
29
30
-5
0
0
[/warp]
