[npc]
Advisor
down
344
24
30
NULL
0
-1
1,2
false
false
false
[/npc]
[npc]
Jasmine
down
289
23
15
Steelix,41,Skarmory,41,Magneton,41,Forretress,41,Scizor,41
5
13
3,4,5,6,7
false
false
false
[/npc]
[warp]
23
33
11
13
-6
-3
0
[/warp]
