[npc]
Sage Nico
right
276
11
4
Bellsprout,3,Bellsprout,3,Bellsprout,3
3
-1
0
false
false
false
[/npc]
[npc]
Sage Edmond
left
276
8
15
Bellsprout,3,Bellsprout,3,Bellsprout,3
3
-1
1
false
false
false
[/npc]
[warp]
5
5
5
6
-50
-44
0
[/warp]
[warp]
16
4
15
4
-50
-44
0
[/warp]
[warp]
1
7
1
6
-50
-44
0
[/warp]
[warp]
9
15
11
14
-50
-46
0
[/warp]
