[npc]
NULL
down
0
6
31
NULL
0
-1
8
false
false
false
[/npc]
[npc]
NULL
down
0
6
15
NULL
0
-1
1
false
false
false
[/npc]
[npc]
NPC
right
80
63
36
NULL
0
-1
9,10
false
false
false
[/npc]
[npc]
NULL
down
0
34
25
NULL
0
-1
7
false
false
false
[/npc]
[npc]
NULL
down
0
29
7
NULL
0
-1
11
false
false
false
[/npc]
[npc]
NPC
right
27
55
6
NULL
0
-1
3
false
false
false
[/npc]
[npc]
NPC
up
18
43
19
NULL
0
-1
5
false
false
false
[/npc]
[npc]
Seasond_Sailor
down
395
12
34
NULL
0
-1
0
false
false
false
[/npc]
[warp]
23
14
15
16
3
49
0
[/warp]
[warp]
27
6
19
25
-43
-50
0
[/warp]
[warp]
36
6
15
25
-44
-45
0
[/warp]
[warp]
38
14
18
33
-45
-43
0
[/warp]
[warp]
42
2
14
24
-46
-32
0
[/warp]
[warp]
55
15
12
22
-46
-33
0
[/warp]
[warp]
11
7
26
24
-46
-34
0
[/warp]
[warp]
12
7
27
24
-46
-34
0
[/warp]
[warp]
38
25
14
22
-46
-36
0
[/warp]
[warp]
22
25
29
26
-46
-38
0
[/warp]
[warp]
12
14
14
25
-47
-35
0
[/warp]
[warp]
70
6
52
46
-41
-38
0
[/warp]
