[npc]
Pokemon Trainer Brendan
down
385
31
10
Aggron,85,Shiftry,82,Swellow,83,Swampert,87,Manetric,86,Rhyperior,88
6
-1
0
false
false
false
[/npc]
[npc]
NPC
left
123
44
17
NULL
0
-1
2,3
false
false
false
[/npc]
[npc]
NPC
down
23
53
35
NULL
0
-1
4,5
false
false
false
[/npc]
[npc]
NPC
up
7
27
21
NULL
0
-1
6
false
false
false
[/npc]
[npc]
NPC
left
87
23
11
NULL
0
-1
7
false
false
false
[/npc]
[warp]
28
17
15
16
6
49
0
[/warp]
[warp]
37
19
5
7
25
49
0
[/warp]
[warp]
38
9
10
38
-43
47
0
[/warp]
[warp]
64
14
21
55
-47
-38
0
[/warp]
[warp]
18
16
14
25
-47
-39
0
[/warp]
[warp]
28
9
13
26
-47
-37
0
[/warp]
[warp]
19
10
15
25
-45
-33
0
[/warp]
[warp]
66
24
14
25
-45
-34
0
[/warp]
[warp]
36
25
16
22
-45
-35
0
[/warp]
[warp]
49
6
14
25
-45
-36
0
[/warp]
[warp]
10
39
38
10
34
20
0
[/warp]
[warp]
11
39
38
10
34
20
0
[/warp]

