[warp]
27
17
7
63
23
19
0
[/warp]
[warp]
4
39
27
38
22
20
0
[/warp]
[warp]
10
1
10
29
41
36
0
[/warp]
[warp]
5
2
3
22
41
37
0
[/warp]
[warp]
26
26
20
34
41
37
0
[/warp]