[npc]
Seasond_Sailor
right
395
13
16
NULL
0
-1
0
false
false
false
[/npc]
[warp]
49
5
48
37
48
-48
0
[/warp]
[warp]
50
5
49
37
48
-48
0
[/warp]
[warp]
75
13
2
13
46
-47
0
[/warp]
[warp]
75
14
2
14
46
-47
0
[/warp]
[warp]
51
21
10
8
-42
-19
0
[/warp]
[warp]
51
26
8
9
-38
-46
0
[/warp]
